<?xml version="1.0" encoding="UTF-8" standalone="no"?>
<svg
   xmlns:dc="http://purl.org/dc/elements/1.1/"
   xmlns:cc="http://creativecommons.org/ns#"
   xmlns:rdf="http://www.w3.org/1999/02/22-rdf-syntax-ns#"
   xmlns:svg="http://www.w3.org/2000/svg"
   xmlns="http://www.w3.org/2000/svg"
   xmlns:xlink="http://www.w3.org/1999/xlink"
   xmlns:sodipodi="http://sodipodi.sourceforge.net/DTD/sodipodi-0.dtd"
   xmlns:inkscape="http://www.inkscape.org/namespaces/inkscape"
   xml:space="preserve"
   enable-background="new 0 0 960 560"
   viewBox="0 0 152.11324 114.85357"
   height="114.85357"
   width="152.11324"
   y="0px"
   x="0px"
   id="Layer_1"
   version="1.1"
   sodipodi:docname="Fish-01.svg"
   inkscape:version="0.92.2 5c3e80d, 2017-08-06"><sodipodi:namedview
     pagecolor="#ffffff"
     bordercolor="#666666"
     borderopacity="1"
     objecttolerance="10"
     gridtolerance="10"
     guidetolerance="10"
     inkscape:pageopacity="0"
     inkscape:pageshadow="2"
     inkscape:window-width="1440"
     inkscape:window-height="784"
     id="namedview1021"
     showgrid="false"
     borderlayer="false"
     inkscape:showpageshadow="true"
     showborder="true"
     inkscape:pagecheckerboard="false"
     fit-margin-top="0"
     fit-margin-left="0"
     fit-margin-right="0"
     fit-margin-bottom="0"
     inkscape:zoom="3.8214286"
     inkscape:cx="114.69223"
     inkscape:cy="54.621906"
     inkscape:window-x="0"
     inkscape:window-y="0"
     inkscape:window-maximized="1"
     inkscape:current-layer="Layer_1"
     inkscape:snap-smooth-nodes="true" /><metadata
     id="metadata10709"><rdf:RDF><cc:Work
         rdf:about=""><dc:format>image/svg+xml</dc:format><dc:type
           rdf:resource="http://purl.org/dc/dcmitype/StillImage" /><dc:title></dc:title></cc:Work></rdf:RDF></metadata><defs
     id="defs10707"><linearGradient
       id="linearGradient12495"><stop
         id="stop12491"
         offset="0"
         style="stop-color:#c0deed;stop-opacity:1" /><stop
         id="stop12493"
         offset="1"
         style="stop-color:#00aced;stop-opacity:1" /></linearGradient><linearGradient
       id="linearGradient12478"><stop
         id="stop12474"
         offset="0"
         style="stop-color:#1dcaff;stop-opacity:1" /><stop
         id="stop12476"
         offset="1"
         style="stop-color:#0084b4;stop-opacity:1" /></linearGradient><linearGradient
       y2="445.58008"
       x2="902.97656"
       y1="427.80273"
       x1="888.5332"
       gradientUnits="userSpaceOnUse"
       id="linearGradient12472"
       xlink:href="#linearGradient12495"
       gradientTransform="translate(-853.84766,-332.09373)" /><linearGradient
       gradientUnits="userSpaceOnUse"
       y2="406.92578"
       x2="961.35352"
       y1="363.28125"
       x1="873.66016"
       id="linearGradient12480"
       xlink:href="#linearGradient12478"
       gradientTransform="translate(-853.84766,-332.09373)" /><linearGradient
       gradientUnits="userSpaceOnUse"
       y2="429.6543"
       x2="950.08594"
       y1="422.66602"
       x1="941.51758"
       id="linearGradient12497"
       xlink:href="#linearGradient12495"
       gradientTransform="translate(-853.84766,-332.09373)" /><linearGradient
       gradientUnits="userSpaceOnUse"
       y2="325.36877"
       x2="917.11981"
       y1="351.79688"
       x1="899.76404"
       id="linearGradient12505"
       xlink:href="#linearGradient12495"
       gradientTransform="translate(-853.84766,-332.09373)" /><linearGradient
       gradientUnits="userSpaceOnUse"
       y2="391.15073"
       x2="991.11163"
       y1="390.91504"
       x1="971.74609"
       id="linearGradient12513"
       xlink:href="#linearGradient12495"
       gradientTransform="translate(-853.84766,-332.09373)" /></defs><path
     id="path12434"
     d="m 40.74218,94.86721 a 63.73,63.73 0 0 1 -0.81445,-0.20703 63.73,63.73 0 0 1 -4.4375,-1.61914 15.971,15.971 0 0 0 -0.41016,1.12109 15.971,15.971 0 0 0 -0.39453,1.54687 15.971,15.971 0 0 0 -0.23828,1.58008 15.971,15.971 0 0 0 -0.0801,1.59375 15.971,15.971 0 0 0 0.041,1.12891 15.971,15.971 0 0 0 0.19141,1.58594 15.971,15.971 0 0 0 0.34961,1.55664 15.971,15.971 0 0 0 0.5039,1.51562 15.971,15.971 0 0 0 0.65234,1.45703 15.971,15.971 0 0 0 0.79297,1.38477 15.971,15.971 0 0 0 0.92969,1.29883 15.971,15.971 0 0 0 1.05274,1.19922 15.971,15.971 0 0 0 1.16796,1.08789 15.971,15.971 0 0 0 1.27149,0.96679 15.971,15.971 0 0 0 1.36133,0.83399 15.971,15.971 0 0 0 1.4375,0.69531 15.971,15.971 0 0 0 1.5,0.54688 15.971,15.971 0 0 0 1.54687,0.39453 15.971,15.971 0 0 0 1.57813,0.23828 15.971,15.971 0 0 0 1.59375,0.0801 15.971,15.971 0 0 0 1.13086,-0.0391 15.971,15.971 0 0 0 0.6582,-0.0801 7.9850001,7.9850001 0 0 1 -0.0742,-0.0117 7.9850001,7.9850001 0 0 1 -0.77344,-0.19727 7.9850001,7.9850001 0 0 1 -0.75,-0.27344 7.9850001,7.9850001 0 0 1 -0.71875,-0.34765 7.9850001,7.9850001 0 0 1 -0.68164,-0.41797 7.9850001,7.9850001 0 0 1 -0.63476,-0.48242 7.9850001,7.9850001 0 0 1 -0.58399,-0.54493 7.9850001,7.9850001 0 0 1 -0.52734,-0.59961 7.9850001,7.9850001 0 0 1 -0.46289,-0.64843 7.9850001,7.9850001 0 0 1 -0.39844,-0.69336 7.9850001,7.9850001 0 0 1 -0.32617,-0.72852 7.9850001,7.9850001 0 0 1 -0.25195,-0.75586 7.9850001,7.9850001 0 0 1 -0.17383,-0.77929 7.9850001,7.9850001 0 0 1 -0.0957,-0.79297 7.9850001,7.9850001 0 0 1 -0.0215,-0.56446 7.9850001,7.9850001 0 0 1 0.041,-0.79687 7.9850001,7.9850001 0 0 1 0.11914,-0.78906 7.9850001,7.9850001 0 0 1 0.17187,-0.67383 7.9850001,7.9850001 0 0 1 -0.67383,-0.24609 7.9850001,7.9850001 0 0 1 -0.71875,-0.34766 7.9850001,7.9850001 0 0 1 -0.67968,-0.41797 7.9850001,7.9850001 0 0 1 -0.63672,-0.48242 7.9850001,7.9850001 0 0 1 -0.58399,-0.54492 7.9850001,7.9850001 0 0 1 -0.52539,-0.59961 7.9850001,7.9850001 0 0 1 -0.46484,-0.64844 7.9850001,7.9850001 0 0 1 -0.39844,-0.69336 7.9850001,7.9850001 0 0 1 -0.32422,-0.72852 7.9850001,7.9850001 0 0 1 -0.25195,-0.75586 7.9850001,7.9850001 0 0 1 -0.17578,-0.77929 7.9850001,7.9850001 0 0 1 -0.0957,-0.79297 7.9850001,7.9850001 0 0 1 -0.0195,-0.56445 7.9850001,7.9850001 0 0 1 0.0391,-0.79688 7.9850001,7.9850001 0 0 1 0.11914,-0.78906 7.9850001,7.9850001 0 0 1 0.14843,-0.58203 z"
     style="opacity:1;vector-effect:none;fill:url(#linearGradient12472);fill-opacity:1;fill-rule:evenodd;stroke:none;stroke-width:1;stroke-linecap:butt;stroke-linejoin:miter;stroke-miterlimit:10;stroke-dasharray:none;stroke-dashoffset:0;stroke-opacity:1"
     inkscape:connector-curvature="0" /><path
     id="path12432"
     d="m 59.42773,17.38088 a 63.73,63.73 0 0 0 -4.50781,0.1582 63.73,63.73 0 0 0 -6.32422,0.76758 63.73,63.73 0 0 0 -6.21484,1.39649 63.73,63.73 0 0 0 -6.04493,2.00781 63.73,63.73 0 0 0 -5.81445,2.60156 63.73,63.73 0 0 0 -2.19531,1.25977 63.73,63.73 0 0 0 -3.33008,1.91015 63.73,63.73 0 0 0 -5.18359,3.70508 63.73,63.73 0 0 0 -4.78516,4.20508 63.73,63.73 0 0 0 -4.3418,4.66211 A 63.73,63.73 0 0 0 6.83007,45.12502 63.73,63.73 0 0 0 3.5,50.55666 63.73,63.73 0 0 0 0.72851,56.29299 63.73,63.73 0 0 0 0,58.29104 a 63.73,63.73 0 0 0 1.96484,4.39257 63.73,63.73 0 0 0 3.16992,5.52735 63.73,63.73 0 0 0 3.70508,5.18164 63.73,63.73 0 0 0 4.20508,4.78515 63.73,63.73 0 0 0 4.66015,4.3418 63.73,63.73 0 0 0 5.07227,3.85547 63.73,63.73 0 0 0 5.43164,3.33008 63.73,63.73 0 0 0 5.73438,2.77148 63.73,63.73 0 0 0 1.54687,0.56446 63.73,63.73 0 0 0 4.4375,1.61914 63.73,63.73 0 0 0 0.81445,0.20703 63.73,63.73 0 0 0 5.35938,1.36914 63.73,63.73 0 0 0 6.29883,0.95117 63.73,63.73 0 0 0 3.98633,0.19922 63.73,63.73 0 0 0 2.375,0.11914 63.73,63.73 0 0 0 4.50781,-0.1582 63.73,63.73 0 0 0 2.9082,-0.35352 63.73,63.73 0 0 0 3.41602,-0.41406 63.73,63.73 0 0 0 6.21679,-1.39649 63.73,63.73 0 0 0 1.85157,-0.61523 63.73,63.73 0 0 0 4.19335,-1.39258 63.73,63.73 0 0 0 5.81446,-2.60351 63.73,63.73 0 0 0 5.52539,-3.16797 63.73,63.73 0 0 0 2.15039,-1.53907 63.73,63.73 0 0 0 3.03125,-2.16796 63.73,63.73 0 0 0 4.78516,-4.20313 63.73,63.73 0 0 0 1.00781,-1.08203 63.73,63.73 0 0 0 2.86133,-3.07031 63.73,63.73 0 0 0 0.47461,-0.50977 63.73,63.73 0 0 0 3.85546,-5.07031 63.73,63.73 0 0 0 3.32813,-5.43164 63.73,63.73 0 0 0 2.77148,-5.73633 63.73,63.73 0 0 0 0.4375,-1.19531 63.73,63.73 0 0 0 0.29297,-0.80469 63.73,63.73 0 0 0 -1.96679,-4.39062 63.73,63.73 0 0 0 -0.45508,-0.79297 63.73,63.73 0 0 0 -2.71485,-4.73438 63.73,63.73 0 0 0 -3.70507,-5.18164 63.73,63.73 0 0 0 -4.20313,-4.78516 63.73,63.73 0 0 0 -0.084,-0.0781 63.73,63.73 0 0 0 -1.85743,-1.73047 63.73,63.73 0 0 0 -2.7207,-2.5332 A 63.73,63.73 0 0 0 95.41404,28.51176 63.73,63.73 0 0 0 89.9824,25.18168 63.73,63.73 0 0 0 84.24607,22.4102 63.73,63.73 0 0 0 78.2617,20.2266 63.73,63.73 0 0 0 75.79685,19.5977 63.73,63.73 0 0 0 72.08982,18.65043 63.73,63.73 0 0 0 65.79099,17.69926 63.73,63.73 0 0 0 59.42771,17.3809 Z M 25.82617,43.75783 a 7.9850001,7.9850001 0 0 1 0.0703,0.004 7.9850001,7.9850001 0 0 1 0.72656,0.0351 7.9850001,7.9850001 0 0 1 0.78907,0.11915 7.9850001,7.9850001 0 0 1 0.77343,0.19726 7.9850001,7.9850001 0 0 1 0.75,0.27344 7.9850001,7.9850001 0 0 1 0.71875,0.34765 7.9850001,7.9850001 0 0 1 0.67969,0.41797 7.9850001,7.9850001 0 0 1 0.63477,0.48243 7.9850001,7.9850001 0 0 1 0.58398,0.54492 7.9850001,7.9850001 0 0 1 0.52734,0.59961 7.9850001,7.9850001 0 0 1 0.46485,0.64843 7.9850001,7.9850001 0 0 1 0.39648,0.69336 7.9850001,7.9850001 0 0 1 0.32617,0.72852 7.9850001,7.9850001 0 0 1 0.25196,0.75586 7.9850001,7.9850001 0 0 1 0.17383,0.7793 7.9850001,7.9850001 0 0 1 0.0977,0.79296 7.9850001,7.9850001 0 0 1 0.0195,0.56446 7.9850001,7.9850001 0 0 1 -0.041,0.79687 7.9850001,7.9850001 0 0 1 -0.11914,0.78907 7.9850001,7.9850001 0 0 1 -0.19727,0.77343 7.9850001,7.9850001 0 0 1 -0.27344,0.75 7.9850001,7.9850001 0 0 1 -0.34765,0.71875 7.9850001,7.9850001 0 0 1 -0.41602,0.67969 7.9850001,7.9850001 0 0 1 -0.48242,0.63672 7.9850001,7.9850001 0 0 1 -0.54492,0.58398 7.9850001,7.9850001 0 0 1 -0.59961,0.52539 7.9850001,7.9850001 0 0 1 -0.49805,0.35743 7.9850001,7.9850001 0 0 1 -0.15039,0.10742 7.9850001,7.9850001 0 0 1 -0.69336,0.39648 7.9850001,7.9850001 0 0 1 -0.72851,0.32617 7.9850001,7.9850001 0 0 1 -0.75782,0.25196 7.9850001,7.9850001 0 0 1 -0.77929,0.17578 7.9850001,7.9850001 0 0 1 -0.79102,0.0957 7.9850001,7.9850001 0 0 1 -0.56445,0.0195 7.9850001,7.9850001 0 0 1 -0.79883,-0.0391 A 7.9850001,7.9850001 0 0 1 24.2383,59.56835 7.9850001,7.9850001 0 0 1 23.46486,59.37108 7.9850001,7.9850001 0 0 1 22.71681,59.09765 7.9850001,7.9850001 0 0 1 21.99806,58.74999 7.9850001,7.9850001 0 0 1 21.31642,58.33202 7.9850001,7.9850001 0 0 1 20.68166,57.8496 7.9850001,7.9850001 0 0 1 20.09767,57.30468 7.9850001,7.9850001 0 0 1 19.57033,56.70507 7.9850001,7.9850001 0 0 1 19.10548,56.05663 7.9850001,7.9850001 0 0 1 18.709,55.36327 7.9850001,7.9850001 0 0 1 18.38283,54.63476 7.9850001,7.9850001 0 0 1 18.13088,53.8789 a 7.9850001,7.9850001 0 0 1 -0.17383,-0.7793 7.9850001,7.9850001 0 0 1 -0.0957,-0.79297 7.9850001,7.9850001 0 0 1 -0.0215,-0.56445 7.9850001,7.9850001 0 0 1 0.041,-0.79688 7.9850001,7.9850001 0 0 1 0.11914,-0.78906 7.9850001,7.9850001 0 0 1 0.19726,-0.77344 7.9850001,7.9850001 0 0 1 0.27344,-0.75 7.9850001,7.9850001 0 0 1 0.34766,-0.71875 7.9850001,7.9850001 0 0 1 0.41601,-0.67969 7.9850001,7.9850001 0 0 1 0.48438,-0.63671 7.9850001,7.9850001 0 0 1 0.54297,-0.58399 7.9850001,7.9850001 0 0 1 0.5996,-0.52734 7.9850001,7.9850001 0 0 1 0.6504,-0.46289 7.9850001,7.9850001 0 0 1 0.6914,-0.39844 7.9850001,7.9850001 0 0 1 0.72852,-0.32617 7.9850001,7.9850001 0 0 1 0.75781,-0.25 7.9850001,7.9850001 0 0 1 0.7793,-0.17578 7.9850001,7.9850001 0 0 1 0.79101,-0.0957 7.9850001,7.9850001 0 0 1 0.56641,-0.0195 z"
     style="opacity:1;vector-effect:none;fill:url(#linearGradient12480);fill-opacity:1;fill-rule:evenodd;stroke:none;stroke-width:1;stroke-linecap:butt;stroke-linejoin:miter;stroke-miterlimit:10;stroke-dasharray:none;stroke-dashoffset:0;stroke-opacity:1"
     inkscape:connector-curvature="0" /><path
     id="path12424"
     d="m 104.68554,86.24221 a 7.9850001,7.9850001 0 0 1 -0.0976,0.0703 7.9850001,7.9850001 0 0 1 -0.69141,0.39648 7.9850001,7.9850001 0 0 1 -0.72852,0.32618 7.9850001,7.9850001 0 0 1 -0.75781,0.25195 7.9850001,7.9850001 0 0 1 -0.77929,0.17578 7.9850001,7.9850001 0 0 1 -0.79102,0.0957 7.9850001,7.9850001 0 0 1 -0.56445,0.0195 7.9850001,7.9850001 0 0 1 -0.79883,-0.0391 7.9850001,7.9850001 0 0 1 -0.78906,-0.11914 7.9850001,7.9850001 0 0 1 -0.77344,-0.19922 7.9850001,7.9850001 0 0 1 -0.75,-0.27343 7.9850001,7.9850001 0 0 1 -0.71875,-0.34571 7.9850001,7.9850001 0 0 1 -0.67969,-0.41797 7.9850001,7.9850001 0 0 1 -0.41992,-0.31836 63.73,63.73 0 0 1 -2.15039,1.53907 63.73,63.73 0 0 1 -5.52539,3.16797 63.73,63.73 0 0 1 -5.81446,2.60351 63.73,63.73 0 0 1 -4.19335,1.39258 15.971,15.971 0 0 0 1.04296,0.97266 15.971,15.971 0 0 0 1.27149,0.96679 15.971,15.971 0 0 0 1.35937,0.83399 15.971,15.971 0 0 0 1.4375,0.69531 15.971,15.971 0 0 0 1.5,0.54687 15.971,15.971 0 0 0 1.54688,0.39454 15.971,15.971 0 0 0 1.57812,0.23828 15.971,15.971 0 0 0 1.59571,0.0801 15.971,15.971 0 0 0 1.1289,-0.0391 15.971,15.971 0 0 0 1.58594,-0.19336 15.971,15.971 0 0 0 1.55664,-0.34961 15.971,15.971 0 0 0 1.51563,-0.5039 15.971,15.971 0 0 0 1.45703,-0.65039 15.971,15.971 0 0 0 1.38476,-0.79492 15.971,15.971 0 0 0 1.29883,-0.92969 15.971,15.971 0 0 0 1.19922,-1.05274 15.971,15.971 0 0 0 1.08789,-1.16797 15.971,15.971 0 0 0 0.9668,-1.27148 15.971,15.971 0 0 0 0.83398,-1.36133 15.971,15.971 0 0 0 0.69336,-1.4375 15.971,15.971 0 0 0 0.54883,-1.49805 15.971,15.971 0 0 0 0.39453,-1.54687 15.971,15.971 0 0 0 0.0391,-0.25781 z"
     style="opacity:1;vector-effect:none;fill:url(#linearGradient12497);fill-opacity:1;fill-rule:evenodd;stroke:none;stroke-width:1;stroke-linecap:butt;stroke-linejoin:miter;stroke-miterlimit:10;stroke-dasharray:none;stroke-dashoffset:0;stroke-opacity:1"
     inkscape:connector-curvature="0" /><path
     id="path12404"
     d="m 75.79687,19.59768 a 15.971,15.971 0 0 1 0.084,-0.11133 15.971,15.971 0 0 1 1.08789,-1.16797 15.971,15.971 0 0 1 1.19921,-1.05273 15.971,15.971 0 0 1 1.29883,-0.92969 15.971,15.971 0 0 1 1.38477,-0.79297 15.971,15.971 0 0 1 1.45703,-0.65234 15.971,15.971 0 0 1 1.51367,-0.50391 15.971,15.971 0 0 1 1.5586,-0.34961 15.971,15.971 0 0 1 1.58398,-0.19336 15.971,15.971 0 0 1 1.13086,-0.0391 15.971,15.971 0 0 1 1.59375,0.0801 15.971,15.971 0 0 1 1.57812,0.23828 15.971,15.971 0 0 1 1.54688,0.39453 15.971,15.971 0 0 1 1.5,0.54687 15.971,15.971 0 0 1 1.4375,0.69532 15.971,15.971 0 0 1 1.36133,0.83398 15.971,15.971 0 0 1 1.25781,0.95703 39.773998,39.773998 0 0 0 -1.78711,-2.5 A 39.773998,39.773998 0 0 0 93.96094,12.06445 39.773998,39.773998 0 0 0 91.05274,9.35352 39.773998,39.773998 0 0 0 87.88673,6.94727 39.773998,39.773998 0 0 0 84.49805,4.86914 39.773998,39.773998 0 0 0 80.91797,3.14063 39.773998,39.773998 0 0 0 77.1836,1.77734 39.773998,39.773998 0 0 0 73.33008,0.79297 39.773998,39.773998 0 0 0 69.4004,0.19922 39.773998,39.773998 0 0 0 65.42774,0 a 39.773998,39.773998 0 0 0 -2.8125,0.0996 39.773998,39.773998 0 0 0 -3.94727,0.48047 39.773998,39.773998 0 0 0 -3.8789,0.86914 39.773998,39.773998 0 0 0 -3.77344,1.25391 39.773998,39.773998 0 0 0 -3.6289,1.625 39.773998,39.773998 0 0 0 -3.44727,1.97851 39.773998,39.773998 0 0 0 -3.23438,2.3125 39.773998,39.773998 0 0 0 -2.98632,2.62305 39.773998,39.773998 0 0 0 -2.71094,2.91015 39.773998,39.773998 0 0 0 -2.40625,3.16407 39.773998,39.773998 0 0 0 -2.07813,3.38867 39.773998,39.773998 0 0 0 -1.72851,3.58008 39.773998,39.773998 0 0 0 -0.46875,1.28711 63.73,63.73 0 0 1 2.19531,-1.25977 63.73,63.73 0 0 1 5.81445,-2.60156 63.73,63.73 0 0 1 6.04493,-2.00781 63.73,63.73 0 0 1 6.21484,-1.39649 63.73,63.73 0 0 1 6.32422,-0.76758 63.73,63.73 0 0 1 4.50781,-0.1582 63.73,63.73 0 0 1 6.36328,0.31836 63.73,63.73 0 0 1 6.29883,0.95117 63.73,63.73 0 0 1 3.70703,0.94727 z"
     style="opacity:1;vector-effect:none;fill:url(#linearGradient12505);fill-opacity:1;fill-rule:evenodd;stroke:none;stroke-width:1;stroke-linecap:butt;stroke-linejoin:miter;stroke-miterlimit:10;stroke-dasharray:none;stroke-dashoffset:0;stroke-opacity:1"
     inkscape:connector-curvature="0" /><path
     id="path12386"
     d="m 144.8164,25.7715 a 63.73,63.73 0 0 0 -1.82031,1.04493 63.73,63.73 0 0 0 -5.18164,3.70507 63.73,63.73 0 0 0 -4.78711,4.20508 63.73,63.73 0 0 0 -4.3418,4.66016 63.73,63.73 0 0 0 -3.85547,5.07226 63.73,63.73 0 0 0 -3.33007,5.42969 63.73,63.73 0 0 0 -2.76954,5.73633 63.73,63.73 0 0 0 -0.4375,1.19727 63.73,63.73 0 0 0 -0.10156,-0.22852 63.73,63.73 0 0 1 -0.29297,0.80469 63.73,63.73 0 0 0 0.10157,0.22656 63.73,63.73 0 0 0 1.96484,4.39258 63.73,63.73 0 0 0 0.45508,0.79492 63.73,63.73 0 0 0 2.71484,4.73047 63.73,63.73 0 0 0 3.70508,5.18164 63.73,63.73 0 0 0 4.20508,4.78711 63.73,63.73 0 0 0 4.66015,4.3418 63.73,63.73 0 0 0 5.07227,3.85546 63.73,63.73 0 0 0 5.4316,3.33008 63.73,63.73 0 0 0 5.7344,2.76953 63.73,63.73 0 0 0 0.1699,0.0625 39.773998,39.773998 0 0 1 -1.0859,-0.52539 39.773998,39.773998 0 0 1 -3.3906,-2.07812 39.773998,39.773998 0 0 1 -3.16409,-2.40625 39.773998,39.773998 0 0 1 -2.91015,-2.70899 39.773998,39.773998 0 0 1 -2.62305,-2.98632 39.773998,39.773998 0 0 1 -2.3125,-3.23438 39.773998,39.773998 0 0 1 -1.97852,-3.44922 39.773998,39.773998 0 0 1 -1.62304,-3.6289 39.773998,39.773998 0 0 1 -1.25391,-3.77344 39.773998,39.773998 0 0 1 -0.87109,-3.87891 39.773998,39.773998 0 0 1 -0.47852,-3.94726 39.773998,39.773998 0 0 1 -0.0996,-2.8125 39.773998,39.773998 0 0 1 0.19727,-3.97071 39.773998,39.773998 0 0 1 0.59375,-3.93164 39.773998,39.773998 0 0 1 0.98437,-3.85156 39.773998,39.773998 0 0 1 1.36328,-3.73437 39.773998,39.773998 0 0 1 1.72852,-3.58008 39.773998,39.773998 0 0 1 2.07812,-3.39063 39.773998,39.773998 0 0 1 2.40625,-3.16406 39.773998,39.773998 0 0 1 2.71094,-2.91016 39.773998,39.773998 0 0 1 2.43164,-2.13672 z"
     style="opacity:1;vector-effect:none;fill:url(#linearGradient12513);fill-opacity:1;fill-rule:evenodd;stroke:none;stroke-width:1;stroke-linecap:butt;stroke-linejoin:miter;stroke-miterlimit:10;stroke-dasharray:none;stroke-dashoffset:0;stroke-opacity:1"
     inkscape:connector-curvature="0" /></svg>